<?xml version="1.0" encoding="UTF-8" standalone="no"?>
<!-- Created with Inkscape (http://www.inkscape.org/) -->

<svg
   width="512mm"
   height="512mm"
   viewBox="0 0 512 512"
   version="1.1"
   id="svg16"
   inkscape:version="1.1.2 (0a00cf5339, 2022-02-04, custom)"
   sodipodi:docname="drawing-11.svg"
   xmlns:inkscape="http://www.inkscape.org/namespaces/inkscape"
   xmlns:sodipodi="http://sodipodi.sourceforge.net/DTD/sodipodi-0.dtd"
   xmlns:xlink="http://www.w3.org/1999/xlink"
   xmlns="http://www.w3.org/2000/svg"
   xmlns:svg="http://www.w3.org/2000/svg">
  <sodipodi:namedview
     id="namedview18"
     pagecolor="#505050"
     bordercolor="#ffffff"
     borderopacity="1"
     inkscape:pageshadow="0"
     inkscape:pageopacity="0"
     inkscape:pagecheckerboard="1"
     inkscape:document-units="mm"
     showgrid="false"
     height="512mm"
     inkscape:zoom="0.31723122"
     inkscape:cx="1899.6188"
     inkscape:cy="981.02928"
     inkscape:window-width="1862"
     inkscape:window-height="1052"
     inkscape:window-x="58"
     inkscape:window-y="28"
     inkscape:window-maximized="1"
     inkscape:current-layer="layer1" />
  <defs
     id="defs13">
    <linearGradient
       inkscape:collect="always"
       id="linearGradient648">
      <stop
         style="stop-color:#ffd42a;stop-opacity:1;"
         offset="0"
         id="stop644" />
      <stop
         style="stop-color:#ff8124;stop-opacity:1"
         offset="1"
         id="stop646" />
    </linearGradient>
    <linearGradient
       inkscape:collect="always"
       xlink:href="#linearGradient648"
       id="linearGradient650"
       x1="143.09744"
       y1="29.621614"
       x2="142.46405"
       y2="482.17496"
       gradientUnits="userSpaceOnUse" />
  </defs>
  <g
     inkscape:groupmode="layer"
     id="layer2"
     inkscape:label="bg"
     style="display:inline">
    <rect
       style="display:inline;fill:url(#linearGradient650);stroke-width:0.264583;fill-opacity:1"
       id="rect131"
       width="450"
       height="450"
       x="31"
       y="31"
       rx="68.453117"
       ry="68.453117" />
  </g>
  <g
     inkscape:label="Layer 1"
     inkscape:groupmode="layer"
     id="layer1"
     style="display:inline">
    <path
       id="path0"
       d="m 180.47606,117.3003 c -7.91301,2.41487 -10.52942,12.13121 -4.73947,17.59573 0.66017,0.62429 13.04506,8.18863 27.52058,16.81045 14.47546,8.62182 26.19321,15.80164 26.03917,15.95569 -0.15409,0.15408 -9.88313,6.24858 -21.62172,13.54427 -26.06005,16.19891 -25.13114,15.39511 -25.1103,21.70975 0.0132,4.29813 0.33576,4.74638 10.92323,15.30129 5.10657,5.09038 9.28432,9.38159 9.28432,9.53563 0,0.15409 -14.24153,0.32569 -31.64847,0.38128 -35.40573,0.11251 -32.80438,-0.0937 -35.82966,2.84344 -3.11443,3.02526 -3.9368,8.43652 -3.2152,21.17003 3.32408,58.66983 38.85374,94.14618 94.31063,94.17052 8.32647,0.003 13.03696,-3.66812 13.03696,-10.16228 0,-7.71375 -3.85919,-10.49462 -15.27927,-11.01121 -34.84861,-1.57635 -56.53752,-16.90081 -66.29321,-46.83971 -2.56896,-7.88753 -4.92477,-21.56843 -4.95953,-28.81431 -0.003,-0.62542 2.09754,-0.66131 38.82481,-0.66482 l 38.8271,-0.003 1.88908,-0.88256 c 4.26806,-1.99331 6.24167,-4.99892 6.22776,-9.4824 -0.0132,-4.53907 -0.0307,-4.55991 -15.32445,-19.87394 l -13.78981,-13.80719 23.12859,-14.34462 c 27.66069,-17.15789 27.51129,-17.03164 27.52171,-23.03706 0.009,-6.48833 1.68749,-5.21662 -38.15536,-28.94515 -37.62376,-22.40744 -37.55775,-22.37386 -41.56749,-21.1496 m 145.38832,62.5151 c -4.19972,1.56707 -6.84511,5.38113 -6.84624,9.87502 -0.001,3.59396 0.72619,4.86222 6.24977,10.90699 45.86447,50.18585 45.29578,125.24797 -1.32041,174.39372 -7.12422,7.51225 -6.73506,15.06039 0.97987,18.9972 6.43858,3.28472 11.81966,-0.19349 23.75866,-15.35457 45.42553,-57.68768 41.24087,-141.77121 -9.65265,-193.97816 -4.89116,-5.01859 -8.81987,-6.46287 -13.169,-4.8402 m -25.40911,30.22151 c -9.19861,3.03688 -10.35221,11.04948 -2.81331,19.54387 30.56437,34.44094 30.42074,82.41919 -0.34495,115.39496 -5.31744,5.69847 -6.05523,10.358 -2.44735,15.45884 4.20318,5.944 11.5996,5.50038 17.81698,-1.0679 35.39182,-37.38859 38.36846,-95.36694 6.99679,-136.29394 -8.57547,-11.18728 -13.88822,-14.79284 -19.20798,-13.03583 m -30.56551,25.78554 c -7.84581,2.5064 -9.2102,11.67144 -2.77973,18.67519 17.02819,18.54316 17.05138,46.11123 0.0543,65.21381 -6.30887,7.09178 -5.63591,14.61213 1.62616,18.16555 4.94212,2.41723 8.90672,1.23236 13.94036,-4.16728 21.25225,-22.7973 24.15478,-58.54358 6.86131,-84.50282 -7.83422,-11.75947 -13.25702,-15.44378 -19.70255,-13.38445"
       stroke="none"
       fill="#000000"
       fill-rule="evenodd"
       style="stroke-width:1.158;stroke-miterlimit:4;stroke-dasharray:none" />
  </g>
</svg>
